{
	"id": "7f324ccd-78b1-76e2-d6df-4855f45a6585",
	"name": "Rule-Engine",
	"description": "",
	"order": [
		"3b617c28-9aa6-395e-b0ea-8d55bde6057d",
		"b142e1b1-f28f-56de-babd-5ec40acaa316",
		"99f18bd2-14d4-884b-d1cb-6d5dc025cf7e"
	],
	"folders": [],
	"folders_order": [],
	"timestamp": 1502337860712,
	"owner": "2473423",
	"public": false,
	"requests": [
		{
			"id": "3b617c28-9aa6-395e-b0ea-8d55bde6057d",
			"headers": "Content-Type: application/json\n",
			"headerData": [
				{
					"key": "Content-Type",
					"value": "application/json",
					"description": "",
					"enabled": true
				}
			],
			"url": "http://localhost:9023/api/reps/available/rule/1",
			"queryParams": [],
			"preRequestScript": null,
			"pathVariables": {},
			"pathVariableData": [],
			"method": "POST",
			"data": [],
			"dataMode": "raw",
			"tests": null,
			"currentHelper": "normal",
			"helperAttributes": {},
			"time": 1502354849059,
			"name": "Rule 1",
			"description": "",
			"collectionId": "7f324ccd-78b1-76e2-d6df-4855f45a6585",
			"responses": [],
			"rawModeData": "{\n\t\"reps\":\n\t[\n\t\t{\n\t\t\"repId\":\"ID123\",\n\t\t\"status\":\"AVAILABLE\",\n\t\t\"country\":\"USA\"\n\t\t},\n\t\t{\n\t\t\"repId\":\"ID124\",\n\t\t\"status\":\"AVAILABLE\",\n\t\t\"country\":\"CAN\"\t\n\t\t}\n\t]\n}"
		},
		{
			"id": "99f18bd2-14d4-884b-d1cb-6d5dc025cf7e",
			"headers": "Content-Type: application/json\n",
			"headerData": [
				{
					"key": "Content-Type",
					"value": "application/json",
					"description": "",
					"enabled": true
				}
			],
			"url": "http://localhost:9023/api/reps/available/rule/remote",
			"queryParams": [],
			"preRequestScript": null,
			"pathVariables": {},
			"pathVariableData": [],
			"method": "POST",
			"data": [],
			"dataMode": "raw",
			"tests": null,
			"currentHelper": "normal",
			"helperAttributes": {},
			"time": 1502355400308,
			"name": "Load rules from Remote URL",
			"description": "",
			"collectionId": "7f324ccd-78b1-76e2-d6df-4855f45a6585",
			"responses": [],
			"rawModeData": "{\n\t\"reps\":\n\t[\n\t\t{\n\t\t\"repId\":\"ID123\",\n\t\t\"status\":\"AVAILABLE\",\n\t\t\"country\":\"USA\"\n\t\t},\n\t\t{\n\t\t\"repId\":\"ID124\",\n\t\t\"status\":\"AVAILABLE\",\n\t\t\"country\":\"CAN\"\t\n\t\t}\n\t]\n}"
		},
		{
			"id": "b142e1b1-f28f-56de-babd-5ec40acaa316",
			"headers": "Content-Type: application/json\n",
			"headerData": [
				{
					"key": "Content-Type",
					"value": "application/json",
					"description": "",
					"enabled": true
				}
			],
			"url": "http://localhost:9023/api/reps/available/rule/2",
			"queryParams": [],
			"preRequestScript": null,
			"pathVariables": {},
			"pathVariableData": [],
			"method": "POST",
			"data": [],
			"dataMode": "raw",
			"tests": null,
			"currentHelper": "normal",
			"helperAttributes": {},
			"time": 1502354912833,
			"name": "Rule 2",
			"description": "",
			"collectionId": "7f324ccd-78b1-76e2-d6df-4855f45a6585",
			"responses": [],
			"rawModeData": "{\n\t\"reps\":\n\t[\n\t\t{\n\t\t\"repId\":\"ID126\",\n\t\t\"status\":\"AVAILABLE\",\n\t\t\"statusLastUpdatedIn\":50\n\t\t},\n\t\t{\n\t\t\"repId\":\"ID125\",\n\t\t\"status\":\"AVAILABLE\",\n\t\t\"statusLastUpdatedIn\":25\n\t\t},\n\t\t{\n\t\t\"repId\":\"ID124\",\n\t\t\"status\":\"AVAILABLE\",\n\t\t\"statusLastUpdatedIn\":40\n\t\t}\n\t]\n}"
		}
	]
}